<svg width="80" height="80" viewBox="0 0 80 80" fill="none" xmlns="http://www.w3.org/2000/svg">
<path d="M39.9733 9C28.4085 9 19 18.4024 19 29.9596C19 41.0669 38.0602 71.1215 38.8716 72.3955C39.1114 72.7719 39.5269 73 39.9733 73C40.4198 73 40.8352 72.7719 41.0749 72.3955C41.8863 71.1215 60.9464 41.0667 60.9464 29.9596C60.9464 18.4024 51.5379 9 39.9733 9ZM39.9733 69.2288C38.2483 66.4386 34.7477 60.6624 31.2812 54.2622C24.9558 42.5831 21.6124 34.1796 21.6124 29.9596C21.6122 19.8428 29.849 11.6122 39.9733 11.6122C50.0976 11.6122 58.3341 19.8428 58.3341 29.9596C58.3341 34.1796 54.9906 42.5831 48.6653 54.2622C45.1989 60.6622 41.6982 66.4386 39.9733 69.2288Z" fill="white"/>
<path d="M39.972 18.9358C34.5014 18.9358 30.0508 23.2655 30.0508 28.5873C30.0508 33.9089 34.5014 38.2383 39.972 38.2383C45.4425 38.2383 49.8931 33.9089 49.8931 28.5873C49.8931 23.2655 45.4425 18.9358 39.972 18.9358ZM39.972 35.6259C35.9419 35.6259 32.663 32.4684 32.663 28.5871C32.663 24.7057 35.9419 21.5479 39.972 21.5479C44.002 21.5479 47.2809 24.7057 47.2809 28.5871C47.2809 32.4684 44.0021 35.6259 39.972 35.6259Z" fill="white"/>
</svg>
